{
  "executionRoleArn": "arn:aws:iam::908915343709:role/ecsTaskExecutionRole",
  "containerDefinitions": [
    {
      "logConfiguration": {
        "logDriver": "awslogs",
        "options": {
          "awslogs-group": "/ecs/myApp",
          "awslogs-region": "ap-northeast-2",
          "awslogs-stream-prefix": "ecs"
        }
      },
      "portMappings": [
        {
          "hostPort": 8080,
          "protocol": "tcp",
          "containerPort": 8080
        }
      ],
      "cpu": 0,
      "image": "908915343709.dkr.ecr.ap-northeast-2.amazonaws.com/myapp:latest",
      "essential": true,
      "name": "myAppContainer"
    }
  ],
  "memory": "4096",
  "family": "myApp",
  "requiresCompatibilities": [
    "FARGATE"
  ],
  "networkMode": "awsvpc",
  "cpu": "2048"
}
